6371: Final Exam Review
…
### Fit Model

Fit the model using software output found above (regression equation with actual estimates for the betasdo not delete any variables even if some are not significant to this model).

$$_{log(followers)} = -2.0421 - 0.0004(followees) + 0.0065(tweets\_per\_week) + 0.3346(gender) +  0.0503(gender * followees) - 0.0165(gender * tweets\_per\_week)$$

```r
model_fit <- model %>% augment()
model_fit

## # A tibble: 399 x 10
##    log_followers follow_ees tweets_per_wk gender .fitted  .resid .std.resid
##            <dbl>      <dbl>         <dbl>  <dbl>   <dbl>   <dbl>      <dbl>
##  1          1.79         72             7      0    2.06 -0.270      -1.43 
##  2          8.59        127             2      1    8.40  0.182       0.952
##  3          2.20        129             1      0    2.00  0.194       1.02 
##  4          8.29        122             0      1    8.17  0.113       0.595
##  5          1.79         82             0      0    2.01 -0.221      -1.16 
##  6          6.88         93            11      1    6.62  0.260       1.43 
##  7          6.58         99             3      1    6.99 -0.417      -2.18 
##  8          2.08        193             1      0    1.98  0.0993      0.524
##  9          2.30        110             0      0    2.00  0.300       1.57 
## 10          2.08        109             5      0    2.04  0.0435      0.228
## #  with 389 more rows, and 3 more variables: .hat <dbl>, .sigma <dbl>,
## #   .cooksd <dbl>
…
